Assignment 6 - Split-plot randomization
…
sp_rcbd_rand <- crossing(yeast_amount_kg = c(1,3,5),
                         wplot = wp_rcbd_rand$wplot
                         ) %>%
 arrange(wplot) %>%
 # Randomizing SP treatment factor to WP plots (restricted)
 group_by(wplot) %>%
 mutate(yeast_amount_kg = sample(yeast_amount_kg)) %>%
 # Creating SP plot numbers
 mutate(splot = paste0(wplot,"-",1:3)) %>%
 ungroup()

sp_rcbd_rand

# A tibble: 36 × 3
   yeast_amount_kg wplot splot
             <dbl> <dbl> <chr>
 1               3   101 101-1
 2               5   101 101-2
 3               1   101 101-3
 4               1   102 102-1
 5               3   102 102-2
 6               5   102 102-3
 7               3   103 103-1
 8               5   103 103-2
 9               1   103 103-3
10               5   201 201-1
# ℹ 26 more rows
6.3 Joining WP and SP into one object

Code

spp_rcbd_rand <- wp_rcbd_rand %>%
  right_join(sp_rcbd_rand) %>%
  mutate(trtname = paste0(fermentation_time_h, "+", yeast_amount_kg))

Joining with `by = join_by(wplot)`

Code

spp_rcbd_rand

# A tibble: 36 × 6
   fermentation_time_h block wplot yeast_amount_kg splot trtname
                 <dbl> <int> <dbl>           <dbl> <chr> <chr>  
 1                  72     1   101               3 101-1 72+3   
 2                  72     1   101               5 101-2 72+5   
 3                  72     1   101               1 101-3 72+1   
 4                  24     1   102               1 102-1 24+1   
 5                  24     1   102               3 102-2 24+3   
 6                  24     1   102               5 102-3 24+5   
 7                  48     1   103               3 103-1 48+3   
 8                  48     1   103               5 103-2 48+5   
 9                  48     1   103               1 103-3 48+1   
10                  24     2   201               5 201-1 24+5   
# ℹ 26 more rows
…
spp_rcbd_layout <- spp_rcbd_rand %>%
  # Defining number of rows and columns in the field for plotting purposes
  mutate(row = rep(1:4, each = 9)) %>% 
  mutate(col = rep(seq(from = 1,
                       to = 9, #total number of treatments,
                       by = 1),
                   times = 4 #total number of blocks
                       )) %>%
  # Creating plot and trtname labels for plotting 
  mutate(lab = paste0(splot, "\n", trtname))

spp_rcbd_layout

# A tibble: 36 × 9
   fermentation_time_h block wplot yeast_amount_kg splot trtname   row   col
                 <dbl> <int> <dbl>           <dbl> <chr> <chr>   <int> <dbl>
 1                  72     1   101               3 101-1 72+3        1     1
 2                  72     1   101               5 101-2 72+5        1     2
 3                  72     1   101               1 101-3 72+1        1     3
 4                  24     1   102               1 102-1 24+1        1     4
 5                  24     1   102               3 102-2 24+3        1     5
 6                  24     1   102               5 102-3 24+5        1     6
 7                  48     1   103               3 103-1 48+3        1     7
 8                  48     1   103               5 103-2 48+5        1     8
 9                  48     1   103               1 103-3 48+1        1     9
10                  24     2   201               5 201-1 24+5        2     1
# ℹ 26 more rows
# ℹ 1 more variable: lab <chr>
…
